{
	"minBrightnessLevel": [6,24,42,54],
	"AlgoMapLcmBrLevel": {
		"sectionone": [0.08666666667,5.913333333],
		"sectiontwo": [0.08666666667,5.913333333],
		"sectionthree": [0.08037037037,7.808518519],
		"sectionfour": [0.02133333333,184.9786667],
		"sectionfive": [2.708333333,-11909.20833],
		"sectionsix": [0.6764705882,-2715.029412],
		"sectionseven": [0.3801652893,-1364.173554],
		"sectioneight": [0.3488,-1213.5888],
		"sectionnight": [0.3947368421,-1462.842105],
		"sectionten": [8.8,-48986.2],
		"sectioneleven": [0.2814136126,-779.5196335],
		"sectiontwelve": [0.2870588235,-815.7788235],
		"sectionthirteen": [0.2216624685,-367.9445844],
		"sectionfourteen": [0.06056860321,927.0889988],
		"sectionfifteen": [0.07573726542,792.8766756],
		"sectionsixteen": [0.1298593879,233.2539289],
		"sectionkeypoint": [151,301,3001,4501,4525,4559,4801,5426,5654,5659,6423,6848,8039,8848,10340]
	},
	"LcmMapAlgoBrLevel": [
		[1,1],
		[2,1],
		[3,1],
		[4,1],
		[5,1],
		[6,1],
		[7,18],
		[8,30],
		[9,41],
		[10,53],
		[11,64],
		[12,76],
		[13,87],
		[14,99],
		[15,110],
		[16,122],
		[17,133],
		[18,145],
		[19,156],
		[20,168],
		[21,180],
		[22,191],
		[23,203],
		[24,214],
		[25,226],
		[26,237],
		[27,249],
		[28,260],
		[29,272],
		[30,283],
		[31,295],
		[32,307],
		[33,319],
		[34,332],
		[35,344],
		[36,357],
		[37,369],
		[38,382],
		[39,394],
		[40,406],
		[41,419],
		[42,431],
		[43,444],
		[44,456],
		[45,469],
		[46,481],
		[47,494],
		[48,506],
		[49,518],
		[50,531],
		[51,543],
		[52,556],
		[53,568],
		[54,581],
		[55,593],
		[56,606],
		[57,618],
		[58,630],
		[59,643],
		[60,655],
		[61,668],
		[62,680],
		[63,693],
		[64,705],
		[65,718],
		[66,730],
		[67,742],
		[68,755],
		[69,767],
		[70,780],
		[71,792],
		[72,805],
		[73,817],
		[74,830],
		[75,842],
		[76,854],
		[77,867],
		[78,879],
		[79,892],
		[80,904],
		[81,917],
		[82,929],
		[83,942],
		[84,954],
		[85,966],
		[86,979],
		[87,991],
		[88,1004],
		[89,1016],
		[90,1029],
		[91,1041],
		[92,1053],
		[93,1066],
		[94,1078],
		[95,1091],
		[96,1103],
		[97,1116],
		[98,1128],
		[99,1141],
		[100,1153],
		[101,1165],
		[102,1178],
		[103,1190],
		[104,1203],
		[105,1215],
		[106,1228],
		[107,1240],
		[108,1253],
		[109,1265],
		[110,1277],
		[111,1290],
		[112,1302],
		[113,1315],
		[114,1327],
		[115,1340],
		[116,1352],
		[117,1365],
		[118,1377],
		[119,1389],
		[120,1402],
		[121,1414],
		[122,1427],
		[123,1439],
		[124,1452],
		[125,1464],
		[126,1477],
		[127,1489],
		[128,1501],
		[129,1514],
		[130,1526],
		[131,1539],
		[132,1551],
		[133,1564],
		[134,1576],
		[135,1589],
		[136,1601],
		[137,1613],
		[138,1626],
		[139,1638],
		[140,1651],
		[141,1663],
		[142,1676],
		[143,1688],
		[144,1700],
		[145,1713],
		[146,1725],
		[147,1738],
		[148,1750],
		[149,1763],
		[150,1775],
		[151,1788],
		[152,1800],
		[153,1812],
		[154,1825],
		[155,1837],
		[156,1850],
		[157,1862],
		[158,1875],
		[159,1887],
		[160,1900],
		[161,1912],
		[162,1924],
		[163,1937],
		[164,1949],
		[165,1962],
		[166,1974],
		[167,1987],
		[168,1999],
		[169,2012],
		[170,2024],
		[171,2036],
		[172,2049],
		[173,2061],
		[174,2074],
		[175,2086],
		[176,2099],
		[177,2111],
		[178,2124],
		[179,2136],
		[180,2148],
		[181,2161],
		[182,2173],
		[183,2186],
		[184,2198],
		[185,2211],
		[186,2223],
		[187,2236],
		[188,2248],
		[189,2260],
		[190,2273],
		[191,2285],
		[192,2298],
		[193,2310],
		[194,2323],
		[195,2335],
		[196,2347],
		[197,2360],
		[198,2372],
		[199,2385],
		[200,2397],
		[201,2410],
		[202,2422],
		[203,2435],
		[204,2447],
		[205,2459],
		[206,2472],
		[207,2484],
		[208,2497],
		[209,2509],
		[210,2522],
		[211,2534],
		[212,2547],
		[213,2559],
		[214,2571],
		[215,2584],
		[216,2596],
		[217,2609],
		[218,2621],
		[219,2634],
		[220,2646],
		[221,2659],
		[222,2671],
		[223,2683],
		[224,2696],
		[225,2708],
		[226,2721],
		[227,2733],
		[228,2746],
		[229,2758],
		[230,2771],
		[231,2783],
		[232,2795],
		[233,2808],
		[234,2820],
		[235,2833],
		[236,2845],
		[237,2858],
		[238,2870],
		[239,2883],
		[240,2895],
		[241,2907],
		[242,2920],
		[243,2932],
		[244,2945],
		[245,2957],
		[246,2970],
		[247,2982],
		[248,2994],
		[249,3024],
		[250,3071],
		[251,3118],
		[252,3165],
		[253,3212],
		[254,3259],
		[255,3306],
		[256,3352],
		[257,3399],
		[258,3446],
		[259,3493],
		[260,3540],
		[261,3587],
		[262,3634],
		[263,3681],
		[264,3727],
		[265,3774],
		[266,3821],
		[267,3868],
		[268,3915],
		[269,3962],
		[270,4009],
		[271,4056],
		[272,4102],
		[273,4149],
		[274,4196],
		[275,4243],
		[276,4290],
		[277,4337],
		[278,4384],
		[279,4431],
		[280,4478],
		[281,4486],
		[281,4486],
		[283,4502],
		[284,4502],
		[284,4502],
		[286,4503],
		[287,4503],
		[287,4503],
		[289,4504],
		[290,4505],
		[291,4505],
		[292,4505],
		[292,4505],
		[294,4506],
		[295,4506],
		[295,4506],
		[297,4507],
		[298,4508],
		[299,4508],
		[300,4508],
		[300,4508],
		[302,4509],
		[303,4509],
		[303,4509],
		[305,4510],
		[306,4510],
		[306,4510],
		[308,4511],
		[309,4512],
		[310,4512],
		[311,4512],
		[311,4512],
		[313,4513],
		[314,4513],
		[314,4513],
		[316,4514],
		[317,4515],
		[318,4515],
		[319,4515],
		[319,4515],
		[321,4516],
		[322,4516],
		[322,4516],
		[324,4517],
		[325,4517],
		[325,4517],
		[327,4518],
		[328,4519],
		[329,4519],
		[330,4519],
		[330,4519],
		[332,4520],
		[333,4520],
		[333,4520],
		[335,4521],
		[336,4522],
		[337,4522],
		[338,4522],
		[338,4522],
		[340,4523],
		[341,4523],
		[341,4523],
		[343,4524],
		[344,4525],
		[345,4525],
		[346,4526],
		[347,4527],
		[348,4528],
		[349,4530],
		[350,4531],
		[351,4533],
		[352,4534],
		[353,4536],
		[354,4537],
		[355,4539],
		[356,4540],
		[357,4542],
		[358,4543],
		[359,4545],
		[360,4546],
		[361,4548],
		[362,4549],
		[363,4551],
		[364,4552],
		[365,4554],
		[366,4555],
		[367,4557],
		[368,4558],
		[369,4560],
		[370,4563],
		[371,4565],
		[372,4568],
		[373,4571],
		[374,4573],
		[375,4576],
		[376,4579],
		[377,4581],
		[378,4584],
		[379,4586],
		[380,4589],
		[381,4592],
		[382,4594],
		[383,4597],
		[384,4600],
		[385,4602],
		[386,4605],
		[387,4607],
		[388,4610],
		[389,4613],
		[390,4615],
		[391,4618],
		[392,4621],
		[393,4623],
		[394,4626],
		[395,4629],
		[396,4631],
		[397,4634],
		[398,4636],
		[399,4639],
		[400,4642],
		[401,4644],
		[402,4647],
		[403,4650],
		[404,4652],
		[405,4655],
		[406,4657],
		[407,4660],
		[408,4663],
		[409,4665],
		[410,4668],
		[411,4671],
		[412,4673],
		[413,4676],
		[414,4678],
		[415,4681],
		[416,4684],
		[417,4686],
		[418,4689],
		[419,4692],
		[420,4694],
		[421,4697],
		[422,4700],
		[423,4702],
		[424,4705],
		[425,4707],
		[426,4710],
		[427,4713],
		[428,4715],
		[429,4718],
		[430,4721],
		[431,4723],
		[432,4726],
		[433,4728],
		[434,4731],
		[435,4734],
		[436,4736],
		[437,4739],
		[438,4742],
		[439,4744],
		[440,4747],
		[441,4750],
		[442,4752],
		[443,4755],
		[444,4757],
		[445,4760],
		[446,4763],
		[447,4765],
		[448,4768],
		[449,4771],
		[450,4773],
		[451,4776],
		[452,4778],
		[453,4781],
		[454,4784],
		[455,4786],
		[456,4789],
		[457,4792],
		[458,4794],
		[459,4797],
		[460,4800],
		[461,4802],
		[462,4805],
		[463,4808],
		[464,4811],
		[465,4814],
		[466,4817],
		[467,4820],
		[468,4822],
		[469,4825],
		[470,4828],
		[471,4831],
		[472,4834],
		[473,4837],
		[474,4840],
		[475,4843],
		[476,4845],
		[477,4848],
		[478,4851],
		[479,4854],
		[480,4857],
		[481,4860],
		[482,4863],
		[483,4865],
		[484,4868],
		[485,4871],
		[486,4874],
		[487,4877],
		[488,4880],
		[489,4883],
		[490,4886],
		[491,4888],
		[492,4891],
		[493,4894],
		[494,4897],
		[495,4900],
		[496,4903],
		[497,4906],
		[498,4908],
		[499,4911],
		[500,4914],
		[501,4917],
		[502,4920],
		[503,4923],
		[504,4926],
		[505,4929],
		[506,4931],
		[507,4934],
		[508,4937],
		[509,4940],
		[510,4943],
		[511,4946],
		[512,4949],
		[513,4951],
		[514,4954],
		[515,4957],
		[516,4960],
		[517,4963],
		[518,4966],
		[519,4969],
		[520,4972],
		[521,4974],
		[522,4977],
		[523,4980],
		[524,4983],
		[525,4986],
		[526,4989],
		[527,4992],
		[528,4994],
		[529,4997],
		[530,5000],
		[531,5003],
		[532,5006],
		[533,5009],
		[534,5012],
		[535,5015],
		[536,5017],
		[537,5020],
		[538,5023],
		[539,5026],
		[540,5029],
		[541,5032],
		[542,5035],
		[543,5037],
		[544,5040],
		[545,5043],
		[546,5046],
		[547,5049],
		[548,5052],
		[549,5055],
		[550,5058],
		[551,5060],
		[552,5063],
		[553,5066],
		[554,5069],
		[555,5072],
		[556,5075],
		[557,5078],
		[558,5080],
		[559,5083],
		[560,5086],
		[561,5089],
		[562,5092],
		[563,5095],
		[564,5098],
		[565,5101],
		[566,5103],
		[567,5106],
		[568,5109],
		[569,5112],
		[570,5115],
		[571,5118],
		[572,5121],
		[573,5123],
		[574,5126],
		[575,5129],
		[576,5132],
		[577,5135],
		[578,5138],
		[579,5141],
		[580,5144],
		[581,5146],
		[582,5149],
		[583,5152],
		[584,5155],
		[585,5158],
		[586,5161],
		[587,5164],
		[588,5166],
		[589,5169],
		[590,5172],
		[591,5175],
		[592,5178],
		[593,5181],
		[594,5184],
		[595,5187],
		[596,5189],
		[597,5192],
		[598,5195],
		[599,5198],
		[600,5201],
		[601,5204],
		[602,5207],
		[603,5209],
		[604,5212],
		[605,5215],
		[606,5218],
		[607,5221],
		[608,5224],
		[609,5227],
		[610,5230],
		[611,5232],
		[612,5235],
		[613,5238],
		[614,5241],
		[615,5244],
		[616,5247],
		[617,5250],
		[618,5252],
		[619,5255],
		[620,5258],
		[621,5261],
		[622,5264],
		[623,5267],
		[624,5270],
		[625,5273],
		[626,5275],
		[627,5278],
		[628,5281],
		[629,5284],
		[630,5287],
		[631,5290],
		[632,5293],
		[633,5295],
		[634,5298],
		[635,5301],
		[636,5304],
		[637,5307],
		[638,5310],
		[639,5313],
		[640,5316],
		[641,5318],
		[642,5321],
		[643,5324],
		[644,5327],
		[645,5330],
		[646,5333],
		[647,5336],
		[648,5338],
		[649,5341],
		[650,5344],
		[651,5347],
		[652,5350],
		[653,5353],
		[654,5356],
		[655,5359],
		[656,5361],
		[657,5364],
		[658,5367],
		[659,5370],
		[660,5373],
		[661,5376],
		[662,5379],
		[663,5381],
		[664,5384],
		[665,5387],
		[666,5390],
		[667,5393],
		[668,5396],
		[669,5399],
		[670,5402],
		[671,5404],
		[672,5407],
		[673,5410],
		[674,5413],
		[675,5416],
		[676,5419],
		[677,5422],
		[678,5425],
		[679,5427],
		[680,5430],
		[681,5432],
		[682,5435],
		[683,5437],
		[684,5440],
		[685,5442],
		[686,5445],
		[687,5447],
		[688,5450],
		[689,5452],
		[690,5455],
		[691,5457],
		[692,5460],
		[693,5463],
		[694,5465],
		[695,5468],
		[696,5470],
		[697,5473],
		[698,5475],
		[699,5478],
		[700,5480],
		[701,5483],
		[702,5485],
		[703,5488],
		[704,5490],
		[705,5493],
		[706,5495],
		[707,5498],
		[708,5501],
		[709,5503],
		[710,5506],
		[711,5508],
		[712,5511],
		[713,5513],
		[714,5516],
		[715,5518],
		[716,5521],
		[717,5523],
		[718,5526],
		[719,5528],
		[720,5531],
		[721,5533],
		[722,5536],
		[723,5539],
		[724,5541],
		[725,5544],
		[726,5546],
		[727,5549],
		[728,5551],
		[729,5554],
		[730,5556],
		[731,5559],
		[732,5561],
		[733,5564],
		[734,5566],
		[735,5569],
		[736,5571],
		[737,5574],
		[738,5577],
		[739,5579],
		[740,5582],
		[741,5584],
		[742,5587],
		[743,5589],
		[744,5592],
		[745,5594],
		[746,5597],
		[747,5599],
		[748,5602],
		[749,5604],
		[750,5607],
		[751,5609],
		[752,5612],
		[753,5615],
		[754,5617],
		[755,5620],
		[756,5622],
		[757,5625],
		[758,5627],
		[759,5630],
		[760,5632],
		[761,5635],
		[762,5637],
		[763,5640],
		[764,5642],
		[765,5645],
		[766,5647],
		[767,5650],
		[768,5652],
		[769,5654],
		[770,5654],
		[770,5654],
		[770,5654],
		[770,5654],
		[770,5654],
		[770,5654],
		[770,5654],
		[777,5655],
		[778,5655],
		[778,5655],
		[778,5655],
		[778,5655],
		[778,5655],
		[778,5655],
		[778,5655],
		[778,5655],
		[786,5656],
		[787,5656],
		[787,5656],
		[787,5656],
		[787,5656],
		[787,5656],
		[787,5656],
		[787,5656],
		[787,5656],
		[795,5657],
		[796,5657],
		[796,5657],
		[796,5657],
		[796,5657],
		[796,5657],
		[796,5657],
		[796,5657],
		[796,5657],
		[804,5658],
		[805,5658],
		[805,5658],
		[805,5658],
		[805,5658],
		[805,5658],
		[805,5658],
		[805,5658],
		[805,5658],
		[813,5660],
		[814,5664],
		[815,5668],
		[816,5671],
		[817,5675],
		[818,5678],
		[819,5682],
		[820,5685],
		[821,5689],
		[822,5692],
		[823,5696],
		[824,5700],
		[825,5703],
		[826,5707],
		[827,5710],
		[828,5714],
		[829,5717],
		[830,5721],
		[831,5724],
		[832,5728],
		[833,5732],
		[834,5735],
		[835,5739],
		[836,5742],
		[837,5746],
		[838,5749],
		[839,5753],
		[840,5756],
		[841,5760],
		[842,5764],
		[843,5767],
		[844,5771],
		[845,5774],
		[846,5778],
		[847,5781],
		[848,5785],
		[849,5788],
		[850,5792],
		[851,5796],
		[852,5799],
		[853,5803],
		[854,5806],
		[855,5810],
		[856,5813],
		[857,5817],
		[858,5820],
		[859,5824],
		[860,5828],
		[861,5831],
		[862,5835],
		[863,5838],
		[864,5842],
		[865,5845],
		[866,5849],
		[867,5852],
		[868,5856],
		[869,5859],
		[870,5863],
		[871,5867],
		[872,5870],
		[873,5874],
		[874,5877],
		[875,5881],
		[876,5884],
		[877,5888],
		[878,5891],
		[879,5895],
		[880,5899],
		[881,5902],
		[882,5906],
		[883,5909],
		[884,5913],
		[885,5916],
		[886,5920],
		[887,5923],
		[888,5927],
		[889,5931],
		[890,5934],
		[891,5938],
		[892,5941],
		[893,5945],
		[894,5948],
		[895,5952],
		[896,5955],
		[897,5959],
		[898,5963],
		[899,5966],
		[900,5970],
		[901,5973],
		[902,5977],
		[903,5980],
		[904,5984],
		[905,5987],
		[906,5991],
		[907,5995],
		[908,5998],
		[909,6002],
		[910,6005],
		[911,6009],
		[912,6012],
		[913,6016],
		[914,6019],
		[915,6023],
		[916,6027],
		[917,6030],
		[918,6034],
		[919,6037],
		[920,6041],
		[921,6044],
		[922,6048],
		[923,6051],
		[924,6055],
		[925,6058],
		[926,6062],
		[927,6066],
		[928,6069],
		[929,6073],
		[930,6076],
		[931,6080],
		[932,6083],
		[933,6087],
		[934,6090],
		[935,6094],
		[936,6098],
		[937,6101],
		[938,6105],
		[939,6108],
		[940,6112],
		[941,6115],
		[942,6119],
		[943,6122],
		[944,6126],
		[945,6130],
		[946,6133],
		[947,6137],
		[948,6140],
		[949,6144],
		[950,6147],
		[951,6151],
		[952,6154],
		[953,6158],
		[954,6162],
		[955,6165],
		[956,6169],
		[957,6172],
		[958,6176],
		[959,6179],
		[960,6183],
		[961,6186],
		[962,6190],
		[963,6194],
		[964,6197],
		[965,6201],
		[966,6204],
		[967,6208],
		[968,6211],
		[969,6215],
		[970,6218],
		[971,6222],
		[972,6226],
		[973,6229],
		[974,6233],
		[975,6236],
		[976,6240],
		[977,6243],
		[978,6247],
		[979,6250],
		[980,6254],
		[981,6257],
		[982,6261],
		[983,6265],
		[984,6268],
		[985,6272],
		[986,6275],
		[987,6279],
		[988,6282],
		[989,6286],
		[990,6289],
		[991,6293],
		[992,6297],
		[993,6300],
		[994,6304],
		[995,6307],
		[996,6311],
		[997,6314],
		[998,6318],
		[999,6321],
		[1000,6325],
		[1001,6329],
		[1002,6332],
		[1003,6336],
		[1004,6339],
		[1005,6343],
		[1006,6346],
		[1007,6350],
		[1008,6353],
		[1009,6357],
		[1010,6361],
		[1011,6364],
		[1012,6368],
		[1013,6371],
		[1014,6375],
		[1015,6378],
		[1016,6382],
		[1017,6385],
		[1018,6389],
		[1019,6393],
		[1020,6396],
		[1021,6400],
		[1022,6403],
		[1023,6407],
		[1024,6410],
		[1025,6414],
		[1026,6417],
		[1027,6421],
		[1028,6425],
		[1029,6428],
		[1030,6431],
		[1031,6435],
		[1032,6438],
		[1033,6442],
		[1034,6445],
		[1035,6449],
		[1036,6452],
		[1037,6456],
		[1038,6459],
		[1039,6463],
		[1040,6466],
		[1041,6470],
		[1042,6473],
		[1043,6477],
		[1044,6480],
		[1045,6484],
		[1046,6487],
		[1047,6491],
		[1048,6494],
		[1049,6498],
		[1050,6501],
		[1051,6505],
		[1052,6508],
		[1053,6512],
		[1054,6515],
		[1055,6519],
		[1056,6522],
		[1057,6526],
		[1058,6529],
		[1059,6532],
		[1060,6536],
		[1061,6539],
		[1062,6543],
		[1063,6546],
		[1064,6550],
		[1065,6553],
		[1066,6557],
		[1067,6560],
		[1068,6564],
		[1069,6567],
		[1070,6571],
		[1071,6574],
		[1072,6578],
		[1073,6581],
		[1074,6585],
		[1075,6588],
		[1076,6592],
		[1077,6595],
		[1078,6599],
		[1079,6602],
		[1080,6606],
		[1081,6609],
		[1082,6613],
		[1083,6616],
		[1084,6620],
		[1085,6623],
		[1086,6627],
		[1087,6630],
		[1088,6634],
		[1089,6637],
		[1090,6640],
		[1091,6644],
		[1092,6647],
		[1093,6651],
		[1094,6654],
		[1095,6658],
		[1096,6661],
		[1097,6665],
		[1098,6668],
		[1099,6672],
		[1100,6675],
		[1101,6679],
		[1102,6682],
		[1103,6686],
		[1104,6689],
		[1105,6693],
		[1106,6696],
		[1107,6700],
		[1108,6703],
		[1109,6707],
		[1110,6710],
		[1111,6714],
		[1112,6717],
		[1113,6721],
		[1114,6724],
		[1115,6728],
		[1116,6731],
		[1117,6735],
		[1118,6738],
		[1119,6742],
		[1120,6745],
		[1121,6748],
		[1122,6752],
		[1123,6755],
		[1124,6759],
		[1125,6762],
		[1126,6766],
		[1127,6769],
		[1128,6773],
		[1129,6776],
		[1130,6780],
		[1131,6783],
		[1132,6787],
		[1133,6790],
		[1134,6794],
		[1135,6797],
		[1136,6801],
		[1137,6804],
		[1138,6808],
		[1139,6811],
		[1140,6815],
		[1141,6818],
		[1142,6822],
		[1143,6825],
		[1144,6829],
		[1145,6832],
		[1146,6836],
		[1147,6839],
		[1148,6843],
		[1149,6846],
		[1150,6850],
		[1151,6855],
		[1152,6859],
		[1153,6864],
		[1154,6868],
		[1155,6873],
		[1156,6877],
		[1157,6882],
		[1158,6886],
		[1159,6891],
		[1160,6895],
		[1161,6900],
		[1162,6904],
		[1163,6909],
		[1164,6913],
		[1165,6918],
		[1166,6922],
		[1167,6927],
		[1168,6931],
		[1169,6936],
		[1170,6940],
		[1171,6945],
		[1172,6949],
		[1173,6954],
		[1174,6958],
		[1175,6963],
		[1176,6967],
		[1177,6972],
		[1178,6976],
		[1179,6981],
		[1180,6985],
		[1181,6990],
		[1182,6994],
		[1183,6999],
		[1184,7003],
		[1185,7008],
		[1186,7012],
		[1187,7017],
		[1188,7021],
		[1189,7026],
		[1190,7030],
		[1191,7035],
		[1192,7039],
		[1193,7044],
		[1194,7049],
		[1195,7053],
		[1196,7058],
		[1197,7062],
		[1198,7067],
		[1199,7071],
		[1200,7076],
		[1201,7080],
		[1202,7085],
		[1203,7089],
		[1204,7094],
		[1205,7098],
		[1206,7103],
		[1207,7107],
		[1208,7112],
		[1209,7116],
		[1210,7121],
		[1211,7125],
		[1212,7130],
		[1213,7134],
		[1214,7139],
		[1215,7143],
		[1216,7148],
		[1217,7152],
		[1218,7157],
		[1219,7161],
		[1220,7166],
		[1221,7170],
		[1222,7175],
		[1223,7179],
		[1224,7184],
		[1225,7188],
		[1226,7193],
		[1227,7197],
		[1228,7202],
		[1229,7206],
		[1230,7211],
		[1231,7215],
		[1232,7220],
		[1233,7224],
		[1234,7229],
		[1235,7233],
		[1236,7238],
		[1237,7242],
		[1238,7247],
		[1239,7252],
		[1240,7256],
		[1241,7261],
		[1242,7265],
		[1243,7270],
		[1244,7274],
		[1245,7279],
		[1246,7283],
		[1247,7288],
		[1248,7292],
		[1249,7297],
		[1250,7301],
		[1251,7306],
		[1252,7310],
		[1253,7315],
		[1254,7319],
		[1255,7324],
		[1256,7328],
		[1257,7333],
		[1258,7337],
		[1259,7342],
		[1260,7346],
		[1261,7351],
		[1262,7355],
		[1263,7360],
		[1264,7364],
		[1265,7369],
		[1266,7373],
		[1267,7378],
		[1268,7382],
		[1269,7387],
		[1270,7391],
		[1271,7396],
		[1272,7400],
		[1273,7405],
		[1274,7409],
		[1275,7414],
		[1276,7418],
		[1277,7423],
		[1278,7427],
		[1279,7432],
		[1280,7436],
		[1281,7441],
		[1282,7446],
		[1283,7450],
		[1284,7455],
		[1285,7459],
		[1286,7464],
		[1287,7468],
		[1288,7473],
		[1289,7477],
		[1290,7482],
		[1291,7486],
		[1292,7491],
		[1293,7495],
		[1294,7500],
		[1295,7504],
		[1296,7509],
		[1297,7513],
		[1298,7518],
		[1299,7522],
		[1300,7527],
		[1301,7531],
		[1302,7536],
		[1303,7540],
		[1304,7545],
		[1305,7549],
		[1306,7554],
		[1307,7558],
		[1308,7563],
		[1309,7567],
		[1310,7572],
		[1311,7576],
		[1312,7581],
		[1313,7585],
		[1314,7590],
		[1315,7594],
		[1316,7599],
		[1317,7603],
		[1318,7608],
		[1319,7612],
		[1320,7617],
		[1321,7621],
		[1322,7626],
		[1323,7630],
		[1324,7635],
		[1325,7639],
		[1326,7644],
		[1327,7649],
		[1328,7653],
		[1329,7658],
		[1330,7662],
		[1331,7667],
		[1332,7671],
		[1333,7676],
		[1334,7680],
		[1335,7685],
		[1336,7689],
		[1337,7694],
		[1338,7698],
		[1339,7703],
		[1340,7707],
		[1341,7712],
		[1342,7716],
		[1343,7721],
		[1344,7725],
		[1345,7730],
		[1346,7734],
		[1347,7739],
		[1348,7743],
		[1349,7748],
		[1350,7752],
		[1351,7757],
		[1352,7761],
		[1353,7766],
		[1354,7770],
		[1355,7775],
		[1356,7779],
		[1357,7784],
		[1358,7788],
		[1359,7793],
		[1360,7797],
		[1361,7802],
		[1362,7806],
		[1363,7811],
		[1364,7815],
		[1365,7820],
		[1366,7824],
		[1367,7829],
		[1368,7833],
		[1369,7838],
		[1370,7843],
		[1371,7847],
		[1372,7852],
		[1373,7856],
		[1374,7861],
		[1375,7865],
		[1376,7870],
		[1377,7874],
		[1378,7879],
		[1379,7883],
		[1380,7888],
		[1381,7892],
		[1382,7897],
		[1383,7901],
		[1384,7906],
		[1385,7910],
		[1386,7915],
		[1387,7919],
		[1388,7924],
		[1389,7928],
		[1390,7933],
		[1391,7937],
		[1392,7942],
		[1393,7946],
		[1394,7951],
		[1395,7955],
		[1396,7960],
		[1397,7964],
		[1398,7969],
		[1399,7973],
		[1400,7978],
		[1401,7982],
		[1402,7987],
		[1403,7991],
		[1404,7996],
		[1405,8000],
		[1406,8005],
		[1407,8009],
		[1408,8014],
		[1409,8018],
		[1410,8023],
		[1411,8027],
		[1412,8032],
		[1413,8036],
		[1414,8047],
		[1415,8064],
		[1416,8080],
		[1417,8097],
		[1418,8113],
		[1419,8130],
		[1420,8146],
		[1421,8163],
		[1422,8179],
		[1423,8196],
		[1424,8212],
		[1425,8229],
		[1426,8245],
		[1427,8262],
		[1428,8278],
		[1429,8295],
		[1430,8311],
		[1431,8328],
		[1432,8344],
		[1433,8361],
		[1434,8377],
		[1435,8394],
		[1436,8410],
		[1437,8427],
		[1438,8443],
		[1439,8460],
		[1440,8476],
		[1441,8493],
		[1442,8509],
		[1443,8526],
		[1444,8542],
		[1445,8559],
		[1446,8575],
		[1447,8592],
		[1448,8608],
		[1449,8625],
		[1450,8641],
		[1451,8658],
		[1452,8674],
		[1453,8691],
		[1454,8707],
		[1455,8724],
		[1456,8740],
		[1457,8757],
		[1458,8773],
		[1459,8790],
		[1460,8806],
		[1461,8823],
		[1462,8839],
		[1463,8854],
		[1464,8868],
		[1465,8881],
		[1466,8894],
		[1467,8907],
		[1468,8921],
		[1469,8934],
		[1470,8947],
		[1471,8960],
		[1472,8973],
		[1473,8987],
		[1474,9000],
		[1475,9013],
		[1476,9026],
		[1477,9039],
		[1478,9053],
		[1479,9066],
		[1480,9079],
		[1481,9092],
		[1482,9105],
		[1483,9119],
		[1484,9132],
		[1485,9145],
		[1486,9158],
		[1487,9171],
		[1488,9185],
		[1489,9198],
		[1490,9211],
		[1491,9224],
		[1492,9237],
		[1493,9251],
		[1494,9264],
		[1495,9277],
		[1496,9290],
		[1497,9303],
		[1498,9317],
		[1499,9330],
		[1500,9343],
		[1501,9356],
		[1502,9369],
		[1503,9383],
		[1504,9396],
		[1505,9409],
		[1506,9422],
		[1507,9435],
		[1508,9449],
		[1509,9462],
		[1510,9475],
		[1511,9488],
		[1512,9501],
		[1513,9515],
		[1514,9528],
		[1515,9541],
		[1516,9554],
		[1517,9567],
		[1518,9581],
		[1519,9594],
		[1520,9607],
		[1521,9620],
		[1522,9634],
		[1523,9647],
		[1524,9660],
		[1525,9673],
		[1526,9686],
		[1527,9700],
		[1528,9713],
		[1529,9726],
		[1530,9739],
		[1531,9752],
		[1532,9766],
		[1533,9779],
		[1534,9792],
		[1535,9805],
		[1536,9818],
		[1537,9832],
		[1538,9845],
		[1539,9858],
		[1540,9871],
		[1541,9884],
		[1542,9898],
		[1543,9911],
		[1544,9924],
		[1545,9937],
		[1546,9950],
		[1547,9964],
		[1548,9977],
		[1549,9990],
		[1550,10003],
		[1551,10016],
		[1552,10030],
		[1553,10043],
		[1554,10056],
		[1555,10069],
		[1556,10082],
		[1557,10096],
		[1558,10109],
		[1559,10122],
		[1560,10135],
		[1561,10148],
		[1562,10162],
		[1563,10175],
		[1564,10188],
		[1565,10201],
		[1566,10214],
		[1567,10228],
		[1568,10241],
		[1569,10254],
		[1570,10267],
		[1571,10280],
		[1572,10294],
		[1573,10307],
		[1574,10320],
		[1575,10333],
		[1576,10343],
		[1577,10351],
		[1578,10359],
		[1579,10367],
		[1580,10374],
		[1581,10382],
		[1582,10390],
		[1583,10397],
		[1584,10405],
		[1585,10413],
		[1586,10421],
		[1587,10428],
		[1588,10436],
		[1589,10444],
		[1590,10451],
		[1591,10459],
		[1592,10467],
		[1593,10474],
		[1594,10482],
		[1595,10490],
		[1596,10498],
		[1597,10505],
		[1598,10513],
		[1599,10521],
		[1600,10528],
		[1601,10536],
		[1602,10544],
		[1603,10551],
		[1604,10559],
		[1605,10567],
		[1606,10575],
		[1607,10582],
		[1608,10590],
		[1609,10598],
		[1610,10605],
		[1611,10613],
		[1612,10621],
		[1613,10628],
		[1614,10636],
		[1615,10644],
		[1616,10652],
		[1617,10659],
		[1618,10667],
		[1619,10675],
		[1620,10682],
		[1621,10690],
		[1622,10698],
		[1623,10705],
		[1624,10713],
		[1625,10721],
		[1626,10729],
		[1627,10736],
		[1628,10744],
		[1629,10752],
		[1630,10759],
		[1631,10767],
		[1632,10775],
		[1633,10782],
		[1634,10790],
		[1635,10798],
		[1636,10806],
		[1637,10813],
		[1638,10821],
		[1639,10829],
		[1640,10836],
		[1641,10844],
		[1642,10852],
		[1643,10859],
		[1644,10867],
		[1645,10875],
		[1646,10883],
		[1647,10890],
		[1648,10898],
		[1649,10906],
		[1650,10913],
		[1651,10921],
		[1652,10929],
		[1653,10936],
		[1654,10944],
		[1655,10952],
		[1656,10960],
		[1657,10967],
		[1658,10975],
		[1659,10983],
		[1660,10990],
		[1661,10998],
		[1662,11006],
		[1663,11013],
		[1664,11021],
		[1665,11029],
		[1666,11037],
		[1667,11044],
		[1668,11052],
		[1669,11060],
		[1670,11067],
		[1671,11075],
		[1672,11083],
		[1673,11090],
		[1674,11098],
		[1675,11106],
		[1676,11114],
		[1677,11121],
		[1678,11129],
		[1679,11137],
		[1680,11144],
		[1681,11152],
		[1682,11160],
		[1683,11167],
		[1684,11175],
		[1685,11183],
		[1686,11191],
		[1687,11198],
		[1688,11206],
		[1689,11214],
		[1690,11221],
		[1691,11229],
		[1692,11237],
		[1693,11244],
		[1694,11252],
		[1695,11260],
		[1696,11268],
		[1697,11275],
		[1698,11283],
		[1699,11291],
		[1700,11298],
		[1701,11306],
		[1702,11314],
		[1703,11321],
		[1704,11329],
		[1705,11337],
		[1706,11345],
		[1707,11352],
		[1708,11360],
		[1709,11368],
		[1710,11375],
		[1711,11383],
		[1712,11391],
		[1713,11398],
		[1714,11406],
		[1715,11414],
		[1716,11422],
		[1717,11429],
		[1718,11437],
		[1719,11445],
		[1720,11452],
		[1721,11460],
		[1722,11468],
		[1723,11475],
		[1724,11483],
		[1725,11491],
		[1726,11499],
		[1727,11506],
		[1728,11514],
		[1729,11522],
		[1730,11529],
		[1731,11537],
		[1732,11545],
		[1733,11552],
		[1734,11560],
		[1735,11568],
		[1736,11576],
		[1737,11583],
		[1738,11591],
		[1739,11599],
		[1740,11606],
		[1741,11614],
		[1742,11622],
		[1743,11630],
		[1744,11637],
		[1745,11645],
		[1746,11653],
		[1747,11660],
		[1748,11668],
		[1749,11676],
		[1750,11683],
		[1751,11691],
		[1752,11699],
		[1753,11707],
		[1754,11714],
		[1755,11722],
		[1756,11730],
		[1757,11737],
		[1758,11745],
		[1759,11753],
		[1760,11760],
		[1761,11768],
		[1762,11776],
		[1763,11784],
		[1764,11791],
		[1765,11799],
		[1766,11807],
		[1767,11814],
		[1768,11822],
		[1769,11830],
		[1770,11837],
		[1771,11845],
		[1772,11853],
		[1773,11861],
		[1774,11868],
		[1775,11876],
		[1776,11884],
		[1777,11891],
		[1778,11899],
		[1779,11907],
		[1780,11914],
		[1781,11922],
		[1782,11930],
		[1783,11938],
		[1784,11945],
		[1785,11953],
		[1786,11961],
		[1787,11968],
		[1788,11976],
		[1789,11984],
		[1790,11991],
		[1791,11999],
		[1792,12007],
		[1793,12015],
		[1794,12022],
		[1795,12030],
		[1796,12038],
		[1797,12045],
		[1798,12053],
		[1799,12061],
		[1800,12068],
		[1801,12076],
		[1802,12084],
		[1803,12092],
		[1804,12099],
		[1805,12107],
		[1806,12115],
		[1807,12122],
		[1808,12130],
		[1809,12138],
		[1810,12145],
		[1811,12153],
		[1812,12161],
		[1813,12169],
		[1814,12176],
		[1815,12184],
		[1816,12192],
		[1817,12199],
		[1818,12207],
		[1819,12215],
		[1820,12222],
		[1821,12230],
		[1822,12238],
		[1823,12246],
		[1824,12253],
		[1825,12261],
		[1826,12269],
		[1827,12276],
		[1828,12284],
		[1829,12292],
		[1830,12299],
		[1831,12307],
		[1832,12315],
		[1833,12323],
		[1834,12330],
		[1835,12338],
		[1836,12346],
		[1837,12353],
		[1838,12361],
		[1839,12369],
		[1840,12376],
		[1841,12384],
		[1842,12392],
		[1843,12400],
		[1844,12407],
		[1845,12415],
		[1846,12423],
		[1847,12430],
		[1848,12438],
		[1849,12446],
		[1850,12453],
		[1851,12461],
		[1852,12469],
		[1853,12477],
		[1854,12484],
		[1855,12492],
		[1856,12500],
		[1857,12507],
		[1858,12515],
		[1859,12523],
		[1860,12530],
		[1861,12538],
		[1862,12546],
		[1863,12554],
		[1864,12561],
		[1865,12569],
		[1866,12577],
		[1867,12584],
		[1868,12592],
		[1869,12600],
		[1870,12607],
		[1871,12615],
		[1872,12623],
		[1873,12631],
		[1874,12638],
		[1875,12646],
		[1876,12654],
		[1877,12661],
		[1878,12669],
		[1879,12677],
		[1880,12684],
		[1881,12692],
		[1882,12700],
		[1883,12708],
		[1884,12715],
		[1885,12723],
		[1886,12731],
		[1887,12738],
		[1888,12746],
		[1889,12754],
		[1890,12761],
		[1891,12769],
		[1892,12777],
		[1893,12785],
		[1894,12792],
		[1895,12800],
		[1896,12808],
		[1897,12815],
		[1898,12823],
		[1899,12831],
		[1900,12839],
		[1901,12846],
		[1902,12854],
		[1903,12862],
		[1904,12869],
		[1905,12877],
		[1906,12885],
		[1907,12892],
		[1908,12900],
		[1909,12908],
		[1910,12916],
		[1911,12923],
		[1912,12931],
		[1913,12939],
		[1914,12946],
		[1915,12954],
		[1916,12962],
		[1917,12969],
		[1918,12977],
		[1919,12985],
		[1920,12993],
		[1921,13000],
		[1922,13008],
		[1923,13016],
		[1924,13023],
		[1925,13031],
		[1926,13039],
		[1927,13046],
		[1928,13054],
		[1929,13062],
		[1930,13070],
		[1931,13077],
		[1932,13085],
		[1933,13093],
		[1934,13100],
		[1935,13108],
		[1936,13116],
		[1937,13123],
		[1938,13131],
		[1939,13139],
		[1940,13147],
		[1941,13154],
		[1942,13162],
		[1943,13170],
		[1944,13177],
		[1945,13185],
		[1946,13193],
		[1947,13200],
		[1948,13208],
		[1949,13216],
		[1950,13224],
		[1951,13231],
		[1952,13239],
		[1953,13247],
		[1954,13254],
		[1955,13262],
		[1956,13270],
		[1957,13277],
		[1958,13285],
		[1959,13293],
		[1960,13301],
		[1961,13308],
		[1962,13316],
		[1963,13324],
		[1964,13331],
		[1965,13339],
		[1966,13347],
		[1967,13354],
		[1968,13362],
		[1969,13370],
		[1970,13378],
		[1971,13385],
		[1972,13393],
		[1973,13401],
		[1974,13408],
		[1975,13416],
		[1976,13424],
		[1977,13431],
		[1978,13439],
		[1979,13447],
		[1980,13455],
		[1981,13462],
		[1982,13470],
		[1983,13478],
		[1984,13485],
		[1985,13493],
		[1986,13501],
		[1987,13508],
		[1988,13516],
		[1989,13524],
		[1990,13532],
		[1991,13539],
		[1992,13547],
		[1993,13555],
		[1994,13562],
		[1995,13570],
		[1996,13578],
		[1997,13585],
		[1998,13593],
		[1999,13601],
		[2000,13609],
		[2001,13616],
		[2002,13624],
		[2003,13632],
		[2004,13639],
		[2005,13647],
		[2006,13655],
		[2007,13662],
		[2008,13670],
		[2009,13678],
		[2010,13686],
		[2011,13693],
		[2012,13701],
		[2013,13709],
		[2014,13716],
		[2015,13724],
		[2016,13732],
		[2017,13739],
		[2018,13747],
		[2019,13755],
		[2020,13763],
		[2021,13770],
		[2022,13778],
		[2023,13786],
		[2024,13793],
		[2025,13801],
		[2026,13809],
		[2027,13816],
		[2028,13824],
		[2029,13832],
		[2030,13840],
		[2031,13847],
		[2032,13855],
		[2033,13863],
		[2034,13870],
		[2035,13878],
		[2036,13886],
		[2037,13893],
		[2038,13901],
		[2039,13909],
		[2040,13917],
		[2041,13924],
		[2042,13932],
		[2043,13940],
		[2044,13947],
		[2045,13955],
		[2046,13963],
		[2047,13967]
	]
}
